{
	"data": [
		{
			"id": 223,
			"name": "Group promo",
			"description": "Group promo",
			"customer_group_id": 51,
			"status": "active",
			"action": "Single Discount",
			"start_date": "2022-08-18 00:00:00",
			"end_date": "2022-08-18 23:59:59",
			"discount_type": "Value",
			"item_discount": null,
			"item_bundling": null,
			"item_exception": null,
			"discount_amount": "250000.00",
			"point_amount": null,
			"is_all_location": null,
			"based_on": null,
			"coupon_expired_days": 0,
			"coupon_expired_at": null,
			"first_n_customers": null,
			"boolean": null,
			"loadshare_discount_eiger": null,
			"loadshare_discount_partner": null,
			"sunday_enabled": null,
			"sunday_start_at": null,
			"sunday_end_at": null,
			"monday_enabled": null,
			"monday_start_at": null,
			"monday_end_at": null,
			"tuesday_enabled": null,
			"tuesday_start_at": null,
			"tuesday_end_at": null,
			"wednesday_enabled": null,
			"wednesday_start_at": null,
			"wednesday_end_at": null,
			"thursday_enabled": null,
			"thursday_start_at": null,
			"thursday_end_at": null,
			"friday_enabled": null,
			"friday_start_at": null,
			"friday_end_at": null,
			"saturday_enabled": null,
			"saturday_start_at": null,
			"saturday_end_at": null,
			"is_loadshare": 0,
			"coupon_tnc": null,
			"coupon_generated_multiple": 0,
			"created_by": "head-office",
			"updated_by": null,
			"deleted_by": null,
			"deleted_at": null,
			"created_at": "2022-08-18 15:35:56",
			"updated_at": "2022-08-18 15:36:02",
			"is_homepage": 0,
			"schema": null,
			"partner": null,
			"max_value": null,
			"discount_mechanism": "Normal"
		},
		{
			"id": 222,
			"name": "Max Value 18",
			"description": "Max value",
			"customer_group_id": null,
			"status": "active",
			"action": "Single Discount",
			"start_date": "2022-08-18 00:00:00",
			"end_date": "2022-08-20 23:59:59",
			"discount_type": "Percentage",
			"item_discount": "article",
			"item_bundling": null,
			"item_exception": null,
			"discount_amount": null,
			"point_amount": null,
			"is_all_location": null,
			"based_on": null,
			"coupon_expired_days": 0,
			"coupon_expired_at": null,
			"first_n_customers": null,
			"boolean": null,
			"loadshare_discount_eiger": null,
			"loadshare_discount_partner": null,
			"sunday_enabled": null,
			"sunday_start_at": null,
			"sunday_end_at": null,
			"monday_enabled": null,
			"monday_start_at": null,
			"monday_end_at": null,
			"tuesday_enabled": null,
			"tuesday_start_at": null,
			"tuesday_end_at": null,
			"wednesday_enabled": null,
			"wednesday_start_at": null,
			"wednesday_end_at": null,
			"thursday_enabled": null,
			"thursday_start_at": null,
			"thursday_end_at": null,
			"friday_enabled": null,
			"friday_start_at": null,
			"friday_end_at": null,
			"saturday_enabled": null,
			"saturday_start_at": null,
			"saturday_end_at": null,
			"is_loadshare": 0,
			"coupon_tnc": null,
			"coupon_generated_multiple": 0,
			"created_by": "head-office",
			"updated_by": null,
			"deleted_by": null,
			"deleted_at": null,
			"created_at": "2022-08-18 15:14:56",
			"updated_at": "2022-08-18 15:15:27",
			"is_homepage": 0,
			"schema": null,
			"partner": null,
			"max_value": null,
			"discount_mechanism": "Normal"
		},
		{
			"id": 221,
			"name": "Max Value",
			"description": "Max Value",
			"customer_group_id": null,
			"status": "cancelled",
			"action": "Single Discount",
			"start_date": "2022-08-18 00:00:00",
			"end_date": "2022-08-20 23:59:59",
			"discount_type": "Percentage",
			"item_discount": "article",
			"item_bundling": null,
			"item_exception": null,
			"discount_amount": null,
			"point_amount": null,
			"is_all_location": null,
			"based_on": null,
			"coupon_expired_days": 0,
			"coupon_expired_at": null,
			"first_n_customers": null,
			"boolean": null,
			"loadshare_discount_eiger": null,
			"loadshare_discount_partner": null,
			"sunday_enabled": null,
			"sunday_start_at": null,
			"sunday_end_at": null,
			"monday_enabled": null,
			"monday_start_at": null,
			"monday_end_at": null,
			"tuesday_enabled": null,
			"tuesday_start_at": null,
			"tuesday_end_at": null,
			"wednesday_enabled": null,
			"wednesday_start_at": null,
			"wednesday_end_at": null,
			"thursday_enabled": null,
			"thursday_start_at": null,
			"thursday_end_at": null,
			"friday_enabled": null,
			"friday_start_at": null,
			"friday_end_at": null,
			"saturday_enabled": null,
			"saturday_start_at": null,
			"saturday_end_at": null,
			"is_loadshare": 0,
			"coupon_tnc": null,
			"coupon_generated_multiple": 0,
			"created_by": "head-office",
			"updated_by": null,
			"deleted_by": null,
			"deleted_at": null,
			"created_at": "2022-08-18 15:09:55",
			"updated_at": "2022-08-18 15:14:08",
			"is_homepage": 0,
			"schema": null,
			"partner": null,
			"max_value": null,
			"discount_mechanism": "Normal"
		},
		{
			"id": 219,
			"name": "Test day and time",
			"description": "Test day and time",
			"customer_group_id": null,
			"status": "active",
			"action": "Single Discount",
			"start_date": "2022-08-18 00:00:00",
			"end_date": "2022-08-25 23:59:59",
			"discount_type": "Value",
			"item_discount": null,
			"item_bundling": null,
			"item_exception": null,
			"discount_amount": "5000.00",
			"point_amount": null,
			"is_all_location": null,
			"based_on": null,
			"coupon_expired_days": 0,
			"coupon_expired_at": null,
			"first_n_customers": 2,
			"boolean": null,
			"loadshare_discount_eiger": null,
			"loadshare_discount_partner": null,
			"sunday_enabled": 1,
			"sunday_start_at": "12:00:00",
			"sunday_end_at": "14:00:00",
			"monday_enabled": null,
			"monday_start_at": null,
			"monday_end_at": null,
			"tuesday_enabled": null,
			"tuesday_start_at": null,
			"tuesday_end_at": null,
			"wednesday_enabled": null,
			"wednesday_start_at": null,
			"wednesday_end_at": null,
			"thursday_enabled": null,
			"thursday_start_at": null,
			"thursday_end_at": null,
			"friday_enabled": null,
			"friday_start_at": null,
			"friday_end_at": null,
			"saturday_enabled": null,
			"saturday_start_at": null,
			"saturday_end_at": null,
			"is_loadshare": 0,
			"coupon_tnc": null,
			"coupon_generated_multiple": 0,
			"created_by": "store-leader",
			"updated_by": null,
			"deleted_by": null,
			"deleted_at": null,
			"created_at": "2022-08-18 11:23:58",
			"updated_at": "2022-08-18 11:24:23",
			"is_homepage": 0,
			"schema": null,
			"partner": null,
			"max_value": null,
			"discount_mechanism": "Normal"
		},
		{
			"id": 218,
			"name": "Loadchare BCA 3",
			"description": "Loadchare BCA 3",
			"customer_group_id": null,
			"status": "active",
			"action": "Tier Discount",
			"start_date": "2022-08-16 00:00:00",
			"end_date": "2022-08-30 23:59:59",
			"discount_type": "Percentage",
			"item_discount": null,
			"item_bundling": null,
			"item_exception": null,
			"discount_amount": null,
			"point_amount": null,
			"is_all_location": null,
			"based_on": null,
			"coupon_expired_days": 0,
			"coupon_expired_at": null,
			"first_n_customers": null,
			"boolean": null,
			"loadshare_discount_eiger": "10.00",
			"loadshare_discount_partner": "90.00",
			"sunday_enabled": null,
			"sunday_start_at": null,
			"sunday_end_at": null,
			"monday_enabled": null,
			"monday_start_at": null,
			"monday_end_at": null,
			"tuesday_enabled": null,
			"tuesday_start_at": null,
			"tuesday_end_at": null,
			"wednesday_enabled": null,
			"wednesday_start_at": null,
			"wednesday_end_at": null,
			"thursday_enabled": null,
			"thursday_start_at": null,
			"thursday_end_at": null,
			"friday_enabled": null,
			"friday_start_at": null,
			"friday_end_at": null,
			"saturday_enabled": null,
			"saturday_start_at": null,
			"saturday_end_at": null,
			"is_loadshare": 1,
			"coupon_tnc": null,
			"coupon_generated_multiple": 0,
			"created_by": "head-office",
			"updated_by": null,
			"deleted_by": null,
			"deleted_at": null,
			"created_at": "2022-08-16 17:52:27",
			"updated_at": "2022-08-16 17:52:38",
			"is_homepage": 0,
			"schema": null,
			"partner": "BCA_C",
			"max_value": null,
			"discount_mechanism": "Loadshare"
		},
		{
			"id": 217,
			"name": "loadshared BCA 2",
			"description": "loadshared BCA 2",
			"customer_group_id": null,
			"status": "cancelled",
			"action": "Tier Discount",
			"start_date": "2022-08-16 00:00:00",
			"end_date": "2022-08-30 23:59:59",
			"discount_type": "Value",
			"item_discount": null,
			"item_bundling": null,
			"item_exception": null,
			"discount_amount": null,
			"point_amount": null,
			"is_all_location": null,
			"based_on": null,
			"coupon_expired_days": 0,
			"coupon_expired_at": null,
			"first_n_customers": 3,
			"boolean": null,
			"loadshare_discount_eiger": "10.00",
			"loadshare_discount_partner": "90.00",
			"sunday_enabled": null,
			"sunday_start_at": null,
			"sunday_end_at": null,
			"monday_enabled": null,
			"monday_start_at": null,
			"monday_end_at": null,
			"tuesday_enabled": null,
			"tuesday_start_at": null,
			"tuesday_end_at": null,
			"wednesday_enabled": null,
			"wednesday_start_at": null,
			"wednesday_end_at": null,
			"thursday_enabled": null,
			"thursday_start_at": null,
			"thursday_end_at": null,
			"friday_enabled": null,
			"friday_start_at": null,
			"friday_end_at": null,
			"saturday_enabled": null,
			"saturday_start_at": null,
			"saturday_end_at": null,
			"is_loadshare": 1,
			"coupon_tnc": null,
			"coupon_generated_multiple": 0,
			"created_by": "head-office",
			"updated_by": null,
			"deleted_by": null,
			"deleted_at": null,
			"created_at": "2022-08-16 17:48:16",
			"updated_at": "2022-08-16 17:52:32",
			"is_homepage": 0,
			"schema": null,
			"partner": "BCA_C",
			"max_value": null,
			"discount_mechanism": "Loadshare"
		},
		{
			"id": 216,
			"name": "Loadshare BCA",
			"description": "Loadshare BCA",
			"customer_group_id": null,
			"status": "active",
			"action": "Tier Discount",
			"start_date": "2022-08-16 00:00:00",
			"end_date": "2022-08-31 23:59:59",
			"discount_type": "Percentage",
			"item_discount": null,
			"item_bundling": null,
			"item_exception": null,
			"discount_amount": null,
			"point_amount": null,
			"is_all_location": null,
			"based_on": null,
			"coupon_expired_days": 0,
			"coupon_expired_at": null,
			"first_n_customers": null,
			"boolean": null,
			"loadshare_discount_eiger": "10.00",
			"loadshare_discount_partner": "90.00",
			"sunday_enabled": null,
			"sunday_start_at": null,
			"sunday_end_at": null,
			"monday_enabled": null,
			"monday_start_at": null,
			"monday_end_at": null,
			"tuesday_enabled": null,
			"tuesday_start_at": null,
			"tuesday_end_at": null,
			"wednesday_enabled": null,
			"wednesday_start_at": null,
			"wednesday_end_at": null,
			"thursday_enabled": null,
			"thursday_start_at": null,
			"thursday_end_at": null,
			"friday_enabled": null,
			"friday_start_at": null,
			"friday_end_at": null,
			"saturday_enabled": null,
			"saturday_start_at": null,
			"saturday_end_at": null,
			"is_loadshare": 1,
			"coupon_tnc": null,
			"coupon_generated_multiple": 0,
			"created_by": "head-office",
			"updated_by": null,
			"deleted_by": null,
			"deleted_at": null,
			"created_at": "2022-08-16 17:29:06",
			"updated_at": "2022-08-16 17:29:42",
			"is_homepage": 0,
			"schema": null,
			"partner": "BCA_C",
			"max_value": null,
			"discount_mechanism": "Loadshare"
		},
		{
			"id": 215,
			"name": "Loadshare BCA",
			"description": "Loadshare BCA",
			"customer_group_id": null,
			"status": "cancelled",
			"action": "Tier Discount",
			"start_date": "2022-08-16 00:00:00",
			"end_date": "2022-09-06 23:59:59",
			"discount_type": "Percentage",
			"item_discount": null,
			"item_bundling": null,
			"item_exception": null,
			"discount_amount": null,
			"point_amount": null,
			"is_all_location": null,
			"based_on": null,
			"coupon_expired_days": 0,
			"coupon_expired_at": null,
			"first_n_customers": null,
			"boolean": null,
			"loadshare_discount_eiger": "10.00",
			"loadshare_discount_partner": "90.00",
			"sunday_enabled": null,
			"sunday_start_at": null,
			"sunday_end_at": null,
			"monday_enabled": null,
			"monday_start_at": null,
			"monday_end_at": null,
			"tuesday_enabled": null,
			"tuesday_start_at": null,
			"tuesday_end_at": null,
			"wednesday_enabled": null,
			"wednesday_start_at": null,
			"wednesday_end_at": null,
			"thursday_enabled": null,
			"thursday_start_at": null,
			"thursday_end_at": null,
			"friday_enabled": null,
			"friday_start_at": null,
			"friday_end_at": null,
			"saturday_enabled": null,
			"saturday_start_at": null,
			"saturday_end_at": null,
			"is_loadshare": 1,
			"coupon_tnc": null,
			"coupon_generated_multiple": 0,
			"created_by": "head-office",
			"updated_by": null,
			"deleted_by": null,
			"deleted_at": null,
			"created_at": "2022-08-16 17:25:14",
			"updated_at": "2022-08-16 17:27:36",
			"is_homepage": 0,
			"schema": null,
			"partner": "BCA_C",
			"max_value": null,
			"discount_mechanism": "Loadshare"
		},
		{
			"id": 214,
			"name": "Loadshared Voucher BCA",
			"description": "Loadshared Voucher BCA",
			"customer_group_id": null,
			"status": "cancelled",
			"action": "Tier Discount",
			"start_date": "2022-08-16 00:00:00",
			"end_date": "2022-08-31 23:59:59",
			"discount_type": "Percentage",
			"item_discount": null,
			"item_bundling": null,
			"item_exception": null,
			"discount_amount": null,
			"point_amount": null,
			"is_all_location": null,
			"based_on": null,
			"coupon_expired_days": 0,
			"coupon_expired_at": null,
			"first_n_customers": null,
			"boolean": null,
			"loadshare_discount_eiger": "10.00",
			"loadshare_discount_partner": "90.00",
			"sunday_enabled": null,
			"sunday_start_at": null,
			"sunday_end_at": null,
			"monday_enabled": null,
			"monday_start_at": null,
			"monday_end_at": null,
			"tuesday_enabled": null,
			"tuesday_start_at": null,
			"tuesday_end_at": null,
			"wednesday_enabled": null,
			"wednesday_start_at": null,
			"wednesday_end_at": null,
			"thursday_enabled": null,
			"thursday_start_at": null,
			"thursday_end_at": null,
			"friday_enabled": null,
			"friday_start_at": null,
			"friday_end_at": null,
			"saturday_enabled": null,
			"saturday_start_at": null,
			"saturday_end_at": null,
			"is_loadshare": 1,
			"coupon_tnc": null,
			"coupon_generated_multiple": 0,
			"created_by": "head-office",
			"updated_by": null,
			"deleted_by": null,
			"deleted_at": null,
			"created_at": "2022-08-16 17:18:38",
			"updated_at": "2022-08-16 17:23:34",
			"is_homepage": 0,
			"schema": null,
			"partner": "Mandiri",
			"max_value": null,
			"discount_mechanism": "Loadshare"
		},
		{
			"id": 213,
			"name": "test loadshare",
			"description": "test loadshare",
			"customer_group_id": null,
			"status": "cancelled",
			"action": "Tier Discount",
			"start_date": "2022-08-16 00:00:00",
			"end_date": "2022-08-30 23:59:59",
			"discount_type": "Value",
			"item_discount": null,
			"item_bundling": null,
			"item_exception": null,
			"discount_amount": null,
			"point_amount": null,
			"is_all_location": null,
			"based_on": null,
			"coupon_expired_days": 0,
			"coupon_expired_at": null,
			"first_n_customers": 60,
			"boolean": null,
			"loadshare_discount_eiger": "10.00",
			"loadshare_discount_partner": "90.00",
			"sunday_enabled": null,
			"sunday_start_at": null,
			"sunday_end_at": null,
			"monday_enabled": null,
			"monday_start_at": null,
			"monday_end_at": null,
			"tuesday_enabled": null,
			"tuesday_start_at": null,
			"tuesday_end_at": null,
			"wednesday_enabled": null,
			"wednesday_start_at": null,
			"wednesday_end_at": null,
			"thursday_enabled": null,
			"thursday_start_at": null,
			"thursday_end_at": null,
			"friday_enabled": null,
			"friday_start_at": null,
			"friday_end_at": null,
			"saturday_enabled": null,
			"saturday_start_at": null,
			"saturday_end_at": null,
			"is_loadshare": 1,
			"coupon_tnc": null,
			"coupon_generated_multiple": 0,
			"created_by": "head-office",
			"updated_by": "head-office",
			"deleted_by": null,
			"deleted_at": null,
			"created_at": "2022-08-16 01:03:43",
			"updated_at": "2022-08-16 17:16:17",
			"is_homepage": 0,
			"schema": null,
			"partner": "Mandiri",
			"max_value": null,
			"discount_mechanism": "Loadshare"
		}
	],
	"links": {
		"first": "https://snowy-prague-ltu7inqjjxtk.vapor-farm-a1.com/api/v1/promotions?page%5Bsize%5D=10&sort=-created_at&page%5Bnumber%5D=1",
		"last": "https://snowy-prague-ltu7inqjjxtk.vapor-farm-a1.com/api/v1/promotions?page%5Bsize%5D=10&sort=-created_at&page%5Bnumber%5D=21",
		"prev": null,
		"next": "https://snowy-prague-ltu7inqjjxtk.vapor-farm-a1.com/api/v1/promotions?page%5Bsize%5D=10&sort=-created_at&page%5Bnumber%5D=2"
	},
	"meta": {
		"current_page": 1,
		"from": 1,
		"last_page": 21,
		"links": [
			{ "url": null, "label": "&laquo; Previous", "active": false },
			{
				"url": "https://snowy-prague-ltu7inqjjxtk.vapor-farm-a1.com/api/v1/promotions?page%5Bsize%5D=10&sort=-created_at&page%5Bnumber%5D=1",
				"label": "1",
				"active": true
			},
			{
				"url": "https://snowy-prague-ltu7inqjjxtk.vapor-farm-a1.com/api/v1/promotions?page%5Bsize%5D=10&sort=-created_at&page%5Bnumber%5D=2",
				"label": "2",
				"active": false
			},
			{
				"url": "https://snowy-prague-ltu7inqjjxtk.vapor-farm-a1.com/api/v1/promotions?page%5Bsize%5D=10&sort=-created_at&page%5Bnumber%5D=3",
				"label": "3",
				"active": false
			},
			{
				"url": "https://snowy-prague-ltu7inqjjxtk.vapor-farm-a1.com/api/v1/promotions?page%5Bsize%5D=10&sort=-created_at&page%5Bnumber%5D=4",
				"label": "4",
				"active": false
			},
			{
				"url": "https://snowy-prague-ltu7inqjjxtk.vapor-farm-a1.com/api/v1/promotions?page%5Bsize%5D=10&sort=-created_at&page%5Bnumber%5D=5",
				"label": "5",
				"active": false
			},
			{
				"url": "https://snowy-prague-ltu7inqjjxtk.vapor-farm-a1.com/api/v1/promotions?page%5Bsize%5D=10&sort=-created_at&page%5Bnumber%5D=6",
				"label": "6",
				"active": false
			},
			{
				"url": "https://snowy-prague-ltu7inqjjxtk.vapor-farm-a1.com/api/v1/promotions?page%5Bsize%5D=10&sort=-created_at&page%5Bnumber%5D=7",
				"label": "7",
				"active": false
			},
			{
				"url": "https://snowy-prague-ltu7inqjjxtk.vapor-farm-a1.com/api/v1/promotions?page%5Bsize%5D=10&sort=-created_at&page%5Bnumber%5D=8",
				"label": "8",
				"active": false
			},
			{
				"url": "https://snowy-prague-ltu7inqjjxtk.vapor-farm-a1.com/api/v1/promotions?page%5Bsize%5D=10&sort=-created_at&page%5Bnumber%5D=9",
				"label": "9",
				"active": false
			},
			{
				"url": "https://snowy-prague-ltu7inqjjxtk.vapor-farm-a1.com/api/v1/promotions?page%5Bsize%5D=10&sort=-created_at&page%5Bnumber%5D=10",
				"label": "10",
				"active": false
			},
			{ "url": null, "label": "...", "active": false },
			{
				"url": "https://snowy-prague-ltu7inqjjxtk.vapor-farm-a1.com/api/v1/promotions?page%5Bsize%5D=10&sort=-created_at&page%5Bnumber%5D=20",
				"label": "20",
				"active": false
			},
			{
				"url": "https://snowy-prague-ltu7inqjjxtk.vapor-farm-a1.com/api/v1/promotions?page%5Bsize%5D=10&sort=-created_at&page%5Bnumber%5D=21",
				"label": "21",
				"active": false
			},
			{
				"url": "https://snowy-prague-ltu7inqjjxtk.vapor-farm-a1.com/api/v1/promotions?page%5Bsize%5D=10&sort=-created_at&page%5Bnumber%5D=2",
				"label": "Next &raquo;",
				"active": false
			}
		],
		"path": "https://snowy-prague-ltu7inqjjxtk.vapor-farm-a1.com/api/v1/promotions",
		"per_page": 10,
		"to": 10,
		"total": 209
	}
}
